33689146727	|	92.184.107.64	:	53946	->	17.142.171.8	:	443	@	2019-12-03T18:26:23+00:00
33610509025	|	#f :	#f	->	#f	:	#f	@	2019-12-03T18:26:27+00:00
33669763205	|	92.184.107.64	:	7144	->	64:ff9b::2865:8962	:	443	@	2019-12-03T18:28:33+00:00
33664084684	|	92.184.107.64	:	54402	->	216.58.204.138	:	443	@	2019-12-03T18:31:04+00:00
33676514289	|	92.184.107.64	:	49158	->	17.248.144.74	:	443	@	2019-12-03T18:26:20+00:00
33786151659	|	92.184.107.64	:	64262	->	17.167.225.11	:	443	@	2019-12-03T18:26:22+00:00
33662691864	|	92.184.107.64	:	59369	->	64:ff9b::11a7:c2e0	:	443	@	2019-12-03T18:26:19+00:00
33642136899	|	92.184.107.64	:	63792	->	52.97.173.2	:	443	@	2019-12-03T18:26:33+00:00
33642136899	|	92.184.107.64	:	63792	->	52.97.173.2	:	443	@	#f
33603597114	|	92.184.107.64	:	18240	->	64:ff9b::b9a5:f071	:	8000	@	2019-12-03T18:26:18+00:00
33600000007	|	92.184.102.61	:	50600	->	52.94.218.7	:	80	@	2019-05-25T07:13:13+00:00
33600000007	|	80.12.38.95	:	52794	->	17.252.11.247	:	5228	@	2019-02-20T19:56:57+00:00
33600000007	|	92.184.104.249	:	40938	->	216.58.209.234	:	443	@	2019-05-23T19:29:28+00:00
